<svg width="72" height="72" viewBox="0 0 72 72" fill="none" xmlns="http://www.w3.org/2000/svg">
<circle cx="36" cy="36" r="36" fill="#9FD6CD"/>
<path d="M39.3134 37.8383L39.2377 37.411C39.1872 37.1259 39.2848 36.8349 39.4989 36.633L41.8139 34.4492L38.6146 33.9992C38.3188 33.9576 38.0631 33.7779 37.9308 33.5185L36.5 30.7129L35.0692 33.5185C34.9369 33.7779 34.6812 33.9576 34.3854 33.9992L31.186 34.4492L33.5011 36.633C33.7151 36.8349 33.8128 37.1259 33.7623 37.411L33.2158 40.4946L36.0774 39.0387C36.2097 38.9714 36.3549 38.9377 36.5 38.9377C36.6451 38.9377 36.7903 38.9713 36.9226 39.0387L37.7365 39.4527C38.0855 39.045 38.4555 38.6506 38.8472 38.2715C39 38.1237 39.1559 37.9799 39.3134 37.8383Z" fill="white"/>
<path d="M36.5 26.2734C30.958 26.2734 26.4492 30.6367 26.4492 36C26.4492 40.6781 29.8797 44.595 34.434 45.5195C34.9166 43.8742 35.6583 42.3123 36.64 40.8808L36.5 40.8096L32.4322 42.8791C32.2994 42.9467 32.1542 42.9801 32.0097 42.9801C31.8214 42.9801 31.634 42.9235 31.4758 42.8122C31.1961 42.6156 31.056 42.2824 31.1145 41.9526L31.8914 37.5691L28.6004 34.4648C28.3529 34.2313 28.2638 33.8821 28.3707 33.5638C28.4775 33.2457 28.7617 33.0138 29.1038 32.9657L33.6517 32.3262L35.6856 28.338C35.8386 28.038 36.1543 27.8481 36.5 27.8481C36.8457 27.8481 37.1614 28.038 37.3144 28.338L39.3483 32.3262L43.8962 32.9657C44.2383 33.0138 44.5225 33.2457 44.6293 33.5638C44.7362 33.8821 44.6471 34.2313 44.3995 34.4648L44.0353 34.8084C44.7808 34.4864 45.5496 34.2169 46.3368 34.0006C45.3814 29.5932 41.334 26.2734 36.5 26.2734Z" fill="white"/>
<path d="M34.0299 47.2335C28.668 46.1305 24.6328 41.513 24.6328 36C24.6328 29.6675 29.9564 24.5156 36.5 24.5156C42.1967 24.5156 46.9681 28.4205 48.1079 33.6096C49.0838 33.4465 50.0811 33.3633 51.0918 33.3633C51.3271 33.3633 51.5571 33.3925 51.7775 33.4475C51.2428 30.4117 49.7562 27.6154 47.4602 25.3934C44.5326 22.5603 40.6402 21 36.5 21C32.3598 21 28.4674 22.5603 25.5398 25.3934C22.6123 28.2265 21 31.9934 21 36C21 40.0066 22.6123 43.7735 25.5398 46.6066C27.8358 48.8286 30.7254 50.2672 33.8625 50.7847C33.8055 50.5714 33.7753 50.3489 33.7753 50.1212C33.7754 49.143 33.8614 48.1778 34.0299 47.2335Z" fill="white"/>
<path d="M36.4998 51C36.3828 51 36.2648 50.9781 36.1525 50.9331C35.8131 50.797 35.5918 50.4766 35.5918 50.1211C35.5918 46.1145 37.2041 42.3476 40.1316 39.5145C43.0592 36.6814 46.9516 35.1211 51.0918 35.1211C51.4591 35.1211 51.7903 35.3352 51.9308 35.6637C52.0714 35.9921 51.9937 36.3701 51.7339 36.6215L37.1422 50.7426C36.9684 50.9108 36.7361 51 36.4998 51Z" fill="white"/>
</svg>
